%YAML 1.1
%TAG !u! tag:unity3d.com,2011:
--- !u!1001 &2344904816950306056
PrefabInstance:
  m_ObjectHideFlags: 0
  serializedVersion: 2
  m_Modification:
    m_TransformParent: {fileID: 0}
    m_Modifications:
    - target: {fileID: 13159919732577750, guid: 6d25448ee400c47f88c4a9641929d6ce, type: 3}
      propertyPath: m_Name
      value: SkillItemJump
      objectReference: {fileID: 0}
    - target: {fileID: 13159919732577751, guid: 6d25448ee400c47f88c4a9641929d6ce, type: 3}
      propertyPath: m_Pivot.x
      value: 0.5
      objectReference: {fileID: 0}
    - target: {fileID: 13159919732577751, guid: 6d25448ee400c47f88c4a9641929d6ce, type: 3}
      propertyPath: m_Pivot.y
      value: 0.5
      objectReference: {fileID: 0}
    - target: {fileID: 13159919732577751, guid: 6d25448ee400c47f88c4a9641929d6ce, type: 3}
      propertyPath: m_RootOrder
      value: 0
      objectReference: {fileID: 0}
    - target: {fileID: 13159919732577751, guid: 6d25448ee400c47f88c4a9641929d6ce, type: 3}
      propertyPath: m_AnchorMax.x
      value: 0
      objectReference: {fileID: 0}
    - target: {fileID: 13159919732577751, guid: 6d25448ee400c47f88c4a9641929d6ce, type: 3}
      propertyPath: m_AnchorMax.y
      value: 0
      objectReference: {fileID: 0}
    - target: {fileID: 13159919732577751, guid: 6d25448ee400c47f88c4a9641929d6ce, type: 3}
      propertyPath: m_AnchorMin.x
      value: 0
      objectReference: {fileID: 0}
    - target: {fileID: 13159919732577751, guid: 6d25448ee400c47f88c4a9641929d6ce, type: 3}
      propertyPath: m_AnchorMin.y
      value: 0
      objectReference: {fileID: 0}
    - target: {fileID: 13159919732577751, guid: 6d25448ee400c47f88c4a9641929d6ce, type: 3}
      propertyPath: m_SizeDelta.x
      value: 172
      objectReference: {fileID: 0}
    - target: {fileID: 13159919732577751, guid: 6d25448ee400c47f88c4a9641929d6ce, type: 3}
      propertyPath: m_SizeDelta.y
      value: 172
      objectReference: {fileID: 0}
    - target: {fileID: 13159919732577751, guid: 6d25448ee400c47f88c4a9641929d6ce, type: 3}
      propertyPath: m_LocalPosition.x
      value: 0
      objectReference: {fileID: 0}
    - target: {fileID: 13159919732577751, guid: 6d25448ee400c47f88c4a9641929d6ce, type: 3}
      propertyPath: m_LocalPosition.y
      value: 0
      objectReference: {fileID: 0}
    - target: {fileID: 13159919732577751, guid: 6d25448ee400c47f88c4a9641929d6ce, type: 3}
      propertyPath: m_LocalPosition.z
      value: 0
      objectReference: {fileID: 0}
    - target: {fileID: 13159919732577751, guid: 6d25448ee400c47f88c4a9641929d6ce, type: 3}
      propertyPath: m_LocalRotation.w
      value: 1
      objectReference: {fileID: 0}
    - target: {fileID: 13159919732577751, guid: 6d25448ee400c47f88c4a9641929d6ce, type: 3}
      propertyPath: m_LocalRotation.x
      value: -0
      objectReference: {fileID: 0}
    - target: {fileID: 13159919732577751, guid: 6d25448ee400c47f88c4a9641929d6ce, type: 3}
      propertyPath: m_LocalRotation.y
      value: -0
      objectReference: {fileID: 0}
    - target: {fileID: 13159919732577751, guid: 6d25448ee400c47f88c4a9641929d6ce, type: 3}
      propertyPath: m_LocalRotation.z
      value: -0
      objectReference: {fileID: 0}
    - target: {fileID: 13159919732577751, guid: 6d25448ee400c47f88c4a9641929d6ce, type: 3}
      propertyPath: m_AnchoredPosition.x
      value: 0
      objectReference: {fileID: 0}
    - target: {fileID: 13159919732577751, guid: 6d25448ee400c47f88c4a9641929d6ce, type: 3}
      propertyPath: m_AnchoredPosition.y
      value: 0
      objectReference: {fileID: 0}
    - target: {fileID: 13159919732577751, guid: 6d25448ee400c47f88c4a9641929d6ce, type: 3}
      propertyPath: m_LocalEulerAnglesHint.x
      value: 0
      objectReference: {fileID: 0}
    - target: {fileID: 13159919732577751, guid: 6d25448ee400c47f88c4a9641929d6ce, type: 3}
      propertyPath: m_LocalEulerAnglesHint.y
      value: 0
      objectReference: {fileID: 0}
    - target: {fileID: 13159919732577751, guid: 6d25448ee400c47f88c4a9641929d6ce, type: 3}
      propertyPath: m_LocalEulerAnglesHint.z
      value: 0
      objectReference: {fileID: 0}
    - target: {fileID: 1525108828504562065, guid: 6d25448ee400c47f88c4a9641929d6ce, type: 3}
      propertyPath: m_Sprite
      value: 
      objectReference: {fileID: 21300000, guid: 020ac971818d040719830d86204f7826, type: 3}
    m_RemovedComponents: []
  m_SourcePrefab: {fileID: 100100000, guid: 6d25448ee400c47f88c4a9641929d6ce, type: 3}
